…
```r
steps_per_day <- activity %>% filter(!is.na(steps)) %>% group_by(date) %>% summarise(total_no_steps_per_day = sum(steps))

steps_per_day
```

```
## # A tibble: 53 × 2
##          date total_no_steps_per_day
##        <date>                  <int>
## 1  2012-10-02                    126
## 2  2012-10-03                  11352
## 3  2012-10-04                  12116
## 4  2012-10-05                  13294
## 5  2012-10-06                  15420
## 6  2012-10-07                  11015
## 7  2012-10-09                  12811
## 8  2012-10-10                   9900
## 9  2012-10-11                  10304
## 10 2012-10-12                  17382
## # ... with 43 more rows
```
…
### Based on the new data set, repeat our analysis above


```r
steps_per_day2 <- activity2 %>% group_by(date) %>% summarise(total_no_steps_per_day = sum(steps))

steps_per_day2
```

```
## # A tibble: 61 × 2
##          date total_no_steps_per_day
##        <date>                  <dbl>
## 1  2012-10-01               9974.857
## 2  2012-10-02                126.000
## 3  2012-10-03              11352.000
## 4  2012-10-04              12116.000
## 5  2012-10-05              13294.000
## 6  2012-10-06              15420.000
## 7  2012-10-07              11015.000
## 8  2012-10-08               9974.857
## 9  2012-10-09              12811.000
## 10 2012-10-10               9900.000
## # ... with 51 more rows
```
…
